@prefix crm:  <http://www.cidoc-crm.org/cidoc-crm/> .
@prefix rdf:  <http://www.w3.org/1999/02/22-rdf-syntax-ns#> .
@prefix rdfs: <http://www.w3.org/2000/01/rdf-schema/www.w3.org/2000/01/rdf-schema/www.w3.org/2000/01/rdf-schema/www.w3.org/2000/01/rdf-schema/www.w3.org/2000/01/rdf-schema/www.w3.org/2000/01/rdf-schema#> .

<http://my.domain/object/1>
  rdf:type
    crm:E22_Man-Made_Object ;
  rdfs:label
    "„David“ Skulptür …", "This is another ‚test‘ …" ;
  crm:P102_has_title
    <http://my.domain/title/1> ;
  crm:P108i_was_produced_by
    <http://my.domain/production/1> ;
  crm:P31i_was_modified_by
    <http://my.domain/modification/1> .
